<?xml version="1.0" encoding="UTF-8" standalone="no"?>
<svg
   width="238.508"
   height="238.508"
   viewBox="0 0 238.508 238.508"
   version="1.1"
   id="svg112"
   sodipodi:docname="manhattan.svg"
   inkscape:export-filename="manhattan.png"
   inkscape:export-xdpi="96"
   inkscape:export-ydpi="96"
   inkscape:version="1.2.2 (b0a8486541, 2022-12-01)"
   xmlns:inkscape="http://www.inkscape.org/namespaces/inkscape"
   xmlns:sodipodi="http://sodipodi.sourceforge.net/DTD/sodipodi-0.dtd"
   xmlns="http://www.w3.org/2000/svg"
   xmlns:svg="http://www.w3.org/2000/svg">
  <defs
     id="defs116" />
  <sodipodi:namedview
     id="namedview114"
     pagecolor="#ffffff"
     bordercolor="#000000"
     borderopacity="0.25"
     inkscape:showpageshadow="2"
     inkscape:pageopacity="1"
     inkscape:pagecheckerboard="0"
     inkscape:deskcolor="#d1d1d1"
     showgrid="false"
     inkscape:zoom="3.5177018"
     inkscape:cx="51.596187"
     inkscape:cy="96.654015"
     inkscape:window-width="1920"
     inkscape:window-height="1011"
     inkscape:window-x="0"
     inkscape:window-y="32"
     inkscape:window-maximized="1"
     inkscape:current-layer="svg112" />
  <path
     fill="none"
     stroke-width="7.97021"
     stroke-linecap="butt"
     stroke-linejoin="miter"
     stroke="rgb(75%, 75%, 75%)"
     stroke-opacity="1"
     stroke-miterlimit="10"
     d="M 0.00096875 0.00115625 L 28.348625 0.00115625 L 28.348625 28.344906 L 0.00096875 28.344906 Z M 0.00096875 0.00115625 "
     transform="matrix(1, 0, 0, -1, 20.042, 218.466)"
     id="path2" />
  <path
     fill="none"
     stroke-width="7.97021"
     stroke-linecap="butt"
     stroke-linejoin="miter"
     stroke="rgb(75%, 75%, 75%)"
     stroke-opacity="1"
     stroke-miterlimit="10"
     d="M 0.00096875 28.344906 L 28.348625 28.344906 L 28.348625 56.692563 L 0.00096875 56.692563 Z M 0.00096875 28.344906 "
     transform="matrix(1, 0, 0, -1, 20.042, 218.466)"
     id="path4" />
  <path
     fill="none"
     stroke-width="7.97021"
     stroke-linecap="butt"
     stroke-linejoin="miter"
     stroke="rgb(75%, 75%, 75%)"
     stroke-opacity="1"
     stroke-miterlimit="10"
     d="M 0.00096875 56.692563 L 28.348625 56.692563 L 28.348625 85.040219 L 0.00096875 85.040219 Z M 0.00096875 56.692563 "
     transform="matrix(1, 0, 0, -1, 20.042, 218.466)"
     id="path6" />
  <path
     fill="none"
     stroke-width="7.97021"
     stroke-linecap="butt"
     stroke-linejoin="miter"
     stroke="rgb(75%, 75%, 75%)"
     stroke-opacity="1"
     stroke-miterlimit="10"
     d="M 0.00096875 85.040219 L 28.348625 85.040219 L 28.348625 113.387875 L 0.00096875 113.387875 Z M 0.00096875 85.040219 "
     transform="matrix(1, 0, 0, -1, 20.042, 218.466)"
     id="path8" />
  <path
     fill="none"
     stroke-width="7.97021"
     stroke-linecap="butt"
     stroke-linejoin="miter"
     stroke="rgb(75%, 75%, 75%)"
     stroke-opacity="1"
     stroke-miterlimit="10"
     d="M 0.00096875 113.387875 L 28.348625 113.387875 L 28.348625 141.735531 L 0.00096875 141.735531 Z M 0.00096875 113.387875 "
     transform="matrix(1, 0, 0, -1, 20.042, 218.466)"
     id="path10" />
  <path
     fill="none"
     stroke-width="7.97021"
     stroke-linecap="butt"
     stroke-linejoin="miter"
     stroke="rgb(75%, 75%, 75%)"
     stroke-opacity="1"
     stroke-miterlimit="10"
     d="M 0.00096875 141.735531 L 28.348625 141.735531 L 28.348625 170.079281 L 0.00096875 170.079281 Z M 0.00096875 141.735531 "
     transform="matrix(1, 0, 0, -1, 20.042, 218.466)"
     id="path12" />
  <path
     fill="none"
     stroke-width="7.97021"
     stroke-linecap="butt"
     stroke-linejoin="miter"
     stroke="rgb(75%, 75%, 75%)"
     stroke-opacity="1"
     stroke-miterlimit="10"
     d="M 0.00096875 170.079281 L 28.348625 170.079281 L 28.348625 198.426938 L 0.00096875 198.426938 Z M 0.00096875 170.079281 "
     transform="matrix(1, 0, 0, -1, 20.042, 218.466)"
     id="path14" />
  <path
     fill="none"
     stroke-width="7.97021"
     stroke-linecap="butt"
     stroke-linejoin="miter"
     stroke="rgb(75%, 75%, 75%)"
     stroke-opacity="1"
     stroke-miterlimit="10"
     d="M 28.348625 0.00115625 L 56.692375 0.00115625 L 56.692375 28.344906 L 28.348625 28.344906 Z M 28.348625 0.00115625 "
     transform="matrix(1, 0, 0, -1, 20.042, 218.466)"
     id="path16" />
  <path
     fill="none"
     stroke-width="7.97021"
     stroke-linecap="butt"
     stroke-linejoin="miter"
     stroke="rgb(75%, 75%, 75%)"
     stroke-opacity="1"
     stroke-miterlimit="10"
     d="M 28.348625 28.344906 L 56.692375 28.344906 L 56.692375 56.692563 L 28.348625 56.692563 Z M 28.348625 28.344906 "
     transform="matrix(1, 0, 0, -1, 20.042, 218.466)"
     id="path18" />
  <path
     fill="none"
     stroke-width="7.97021"
     stroke-linecap="butt"
     stroke-linejoin="miter"
     stroke="rgb(75%, 75%, 75%)"
     stroke-opacity="1"
     stroke-miterlimit="10"
     d="M 28.348625 56.692563 L 56.692375 56.692563 L 56.692375 85.040219 L 28.348625 85.040219 Z M 28.348625 56.692563 "
     transform="matrix(1, 0, 0, -1, 20.042, 218.466)"
     id="path20" />
  <path
     fill="none"
     stroke-width="7.97021"
     stroke-linecap="butt"
     stroke-linejoin="miter"
     stroke="rgb(75%, 75%, 75%)"
     stroke-opacity="1"
     stroke-miterlimit="10"
     d="M 28.348625 85.040219 L 56.692375 85.040219 L 56.692375 113.387875 L 28.348625 113.387875 Z M 28.348625 85.040219 "
     transform="matrix(1, 0, 0, -1, 20.042, 218.466)"
     id="path22" />
  <path
     fill="none"
     stroke-width="7.97021"
     stroke-linecap="butt"
     stroke-linejoin="miter"
     stroke="rgb(75%, 75%, 75%)"
     stroke-opacity="1"
     stroke-miterlimit="10"
     d="M 28.348625 113.387875 L 56.692375 113.387875 L 56.692375 141.735531 L 28.348625 141.735531 Z M 28.348625 113.387875 "
     transform="matrix(1, 0, 0, -1, 20.042, 218.466)"
     id="path24" />
  <path
     fill="none"
     stroke-width="7.97021"
     stroke-linecap="butt"
     stroke-linejoin="miter"
     stroke="rgb(75%, 75%, 75%)"
     stroke-opacity="1"
     stroke-miterlimit="10"
     d="M 28.348625 141.735531 L 56.692375 141.735531 L 56.692375 170.079281 L 28.348625 170.079281 Z M 28.348625 141.735531 "
     transform="matrix(1, 0, 0, -1, 20.042, 218.466)"
     id="path26" />
  <path
     fill="none"
     stroke-width="7.97021"
     stroke-linecap="butt"
     stroke-linejoin="miter"
     stroke="rgb(75%, 75%, 75%)"
     stroke-opacity="1"
     stroke-miterlimit="10"
     d="M 28.348625 170.079281 L 56.692375 170.079281 L 56.692375 198.426938 L 28.348625 198.426938 Z M 28.348625 170.079281 "
     transform="matrix(1, 0, 0, -1, 20.042, 218.466)"
     id="path28" />
  <path
     fill="none"
     stroke-width="7.97021"
     stroke-linecap="butt"
     stroke-linejoin="miter"
     stroke="rgb(75%, 75%, 75%)"
     stroke-opacity="1"
     stroke-miterlimit="10"
     d="M 56.692375 0.00115625 L 85.040031 0.00115625 L 85.040031 28.344906 L 56.692375 28.344906 Z M 56.692375 0.00115625 "
     transform="matrix(1, 0, 0, -1, 20.042, 218.466)"
     id="path30" />
  <path
     fill="none"
     stroke-width="7.97021"
     stroke-linecap="butt"
     stroke-linejoin="miter"
     stroke="rgb(75%, 75%, 75%)"
     stroke-opacity="1"
     stroke-miterlimit="10"
     d="M 56.692375 28.344906 L 85.040031 28.344906 L 85.040031 56.692563 L 56.692375 56.692563 Z M 56.692375 28.344906 "
     transform="matrix(1, 0, 0, -1, 20.042, 218.466)"
     id="path32" />
  <path
     fill="none"
     stroke-width="7.97021"
     stroke-linecap="butt"
     stroke-linejoin="miter"
     stroke="rgb(75%, 75%, 75%)"
     stroke-opacity="1"
     stroke-miterlimit="10"
     d="M 56.692375 56.692563 L 85.040031 56.692563 L 85.040031 85.040219 L 56.692375 85.040219 Z M 56.692375 56.692563 "
     transform="matrix(1, 0, 0, -1, 20.042, 218.466)"
     id="path34" />
  <path
     fill="none"
     stroke-width="7.97021"
     stroke-linecap="butt"
     stroke-linejoin="miter"
     stroke="rgb(75%, 75%, 75%)"
     stroke-opacity="1"
     stroke-miterlimit="10"
     d="M 56.692375 85.040219 L 85.040031 85.040219 L 85.040031 113.387875 L 56.692375 113.387875 Z M 56.692375 85.040219 "
     transform="matrix(1, 0, 0, -1, 20.042, 218.466)"
     id="path36" />
  <path
     fill="none"
     stroke-width="7.97021"
     stroke-linecap="butt"
     stroke-linejoin="miter"
     stroke="rgb(75%, 75%, 75%)"
     stroke-opacity="1"
     stroke-miterlimit="10"
     d="M 56.692375 113.387875 L 85.040031 113.387875 L 85.040031 141.735531 L 56.692375 141.735531 Z M 56.692375 113.387875 "
     transform="matrix(1, 0, 0, -1, 20.042, 218.466)"
     id="path38" />
  <path
     fill="none"
     stroke-width="7.97021"
     stroke-linecap="butt"
     stroke-linejoin="miter"
     stroke="rgb(75%, 75%, 75%)"
     stroke-opacity="1"
     stroke-miterlimit="10"
     d="M 56.692375 141.735531 L 85.040031 141.735531 L 85.040031 170.079281 L 56.692375 170.079281 Z M 56.692375 141.735531 "
     transform="matrix(1, 0, 0, -1, 20.042, 218.466)"
     id="path40" />
  <path
     fill="none"
     stroke-width="7.97021"
     stroke-linecap="butt"
     stroke-linejoin="miter"
     stroke="rgb(75%, 75%, 75%)"
     stroke-opacity="1"
     stroke-miterlimit="10"
     d="M 56.692375 170.079281 L 85.040031 170.079281 L 85.040031 198.426938 L 56.692375 198.426938 Z M 56.692375 170.079281 "
     transform="matrix(1, 0, 0, -1, 20.042, 218.466)"
     id="path42" />
  <path
     fill="none"
     stroke-width="7.97021"
     stroke-linecap="butt"
     stroke-linejoin="miter"
     stroke="rgb(75%, 75%, 75%)"
     stroke-opacity="1"
     stroke-miterlimit="10"
     d="M 85.040031 0.00115625 L 113.387687 0.00115625 L 113.387687 28.344906 L 85.040031 28.344906 Z M 85.040031 0.00115625 "
     transform="matrix(1, 0, 0, -1, 20.042, 218.466)"
     id="path44" />
  <path
     fill="none"
     stroke-width="7.97021"
     stroke-linecap="butt"
     stroke-linejoin="miter"
     stroke="rgb(75%, 75%, 75%)"
     stroke-opacity="1"
     stroke-miterlimit="10"
     d="M 85.040031 28.344906 L 113.387687 28.344906 L 113.387687 56.692563 L 85.040031 56.692563 Z M 85.040031 28.344906 "
     transform="matrix(1, 0, 0, -1, 20.042, 218.466)"
     id="path46" />
  <path
     fill="none"
     stroke-width="7.97021"
     stroke-linecap="butt"
     stroke-linejoin="miter"
     stroke="rgb(75%, 75%, 75%)"
     stroke-opacity="1"
     stroke-miterlimit="10"
     d="M 85.040031 56.692563 L 113.387687 56.692563 L 113.387687 85.040219 L 85.040031 85.040219 Z M 85.040031 56.692563 "
     transform="matrix(1, 0, 0, -1, 20.042, 218.466)"
     id="path48" />
  <path
     fill="none"
     stroke-width="7.97021"
     stroke-linecap="butt"
     stroke-linejoin="miter"
     stroke="rgb(75%, 75%, 75%)"
     stroke-opacity="1"
     stroke-miterlimit="10"
     d="M 85.040031 85.040219 L 113.387687 85.040219 L 113.387687 113.387875 L 85.040031 113.387875 Z M 85.040031 85.040219 "
     transform="matrix(1, 0, 0, -1, 20.042, 218.466)"
     id="path50" />
  <path
     fill="none"
     stroke-width="7.97021"
     stroke-linecap="butt"
     stroke-linejoin="miter"
     stroke="rgb(75%, 75%, 75%)"
     stroke-opacity="1"
     stroke-miterlimit="10"
     d="M 85.040031 113.387875 L 113.387687 113.387875 L 113.387687 141.735531 L 85.040031 141.735531 Z M 85.040031 113.387875 "
     transform="matrix(1, 0, 0, -1, 20.042, 218.466)"
     id="path52" />
  <path
     fill="none"
     stroke-width="7.97021"
     stroke-linecap="butt"
     stroke-linejoin="miter"
     stroke="rgb(75%, 75%, 75%)"
     stroke-opacity="1"
     stroke-miterlimit="10"
     d="M 85.040031 141.735531 L 113.387687 141.735531 L 113.387687 170.079281 L 85.040031 170.079281 Z M 85.040031 141.735531 "
     transform="matrix(1, 0, 0, -1, 20.042, 218.466)"
     id="path54" />
  <path
     fill="none"
     stroke-width="7.97021"
     stroke-linecap="butt"
     stroke-linejoin="miter"
     stroke="rgb(75%, 75%, 75%)"
     stroke-opacity="1"
     stroke-miterlimit="10"
     d="M 85.040031 170.079281 L 113.387687 170.079281 L 113.387687 198.426938 L 85.040031 198.426938 Z M 85.040031 170.079281 "
     transform="matrix(1, 0, 0, -1, 20.042, 218.466)"
     id="path56" />
  <path
     fill="none"
     stroke-width="7.97021"
     stroke-linecap="butt"
     stroke-linejoin="miter"
     stroke="rgb(75%, 75%, 75%)"
     stroke-opacity="1"
     stroke-miterlimit="10"
     d="M 113.387687 0.00115625 L 141.735344 0.00115625 L 141.735344 28.344906 L 113.387687 28.344906 Z M 113.387687 0.00115625 "
     transform="matrix(1, 0, 0, -1, 20.042, 218.466)"
     id="path58" />
  <path
     fill="none"
     stroke-width="7.97021"
     stroke-linecap="butt"
     stroke-linejoin="miter"
     stroke="rgb(75%, 75%, 75%)"
     stroke-opacity="1"
     stroke-miterlimit="10"
     d="M 113.387687 28.344906 L 141.735344 28.344906 L 141.735344 56.692563 L 113.387687 56.692563 Z M 113.387687 28.344906 "
     transform="matrix(1, 0, 0, -1, 20.042, 218.466)"
     id="path60" />
  <path
     fill="none"
     stroke-width="7.97021"
     stroke-linecap="butt"
     stroke-linejoin="miter"
     stroke="rgb(75%, 75%, 75%)"
     stroke-opacity="1"
     stroke-miterlimit="10"
     d="M 113.387687 56.692563 L 141.735344 56.692563 L 141.735344 85.040219 L 113.387687 85.040219 Z M 113.387687 56.692563 "
     transform="matrix(1, 0, 0, -1, 20.042, 218.466)"
     id="path62" />
  <path
     fill="none"
     stroke-width="7.97021"
     stroke-linecap="butt"
     stroke-linejoin="miter"
     stroke="rgb(75%, 75%, 75%)"
     stroke-opacity="1"
     stroke-miterlimit="10"
     d="M 113.387687 85.040219 L 141.735344 85.040219 L 141.735344 113.387875 L 113.387687 113.387875 Z M 113.387687 85.040219 "
     transform="matrix(1, 0, 0, -1, 20.042, 218.466)"
     id="path64" />
  <path
     fill="none"
     stroke-width="7.97021"
     stroke-linecap="butt"
     stroke-linejoin="miter"
     stroke="rgb(75%, 75%, 75%)"
     stroke-opacity="1"
     stroke-miterlimit="10"
     d="M 113.387687 113.387875 L 141.735344 113.387875 L 141.735344 141.735531 L 113.387687 141.735531 Z M 113.387687 113.387875 "
     transform="matrix(1, 0, 0, -1, 20.042, 218.466)"
     id="path66" />
  <path
     fill="none"
     stroke-width="7.97021"
     stroke-linecap="butt"
     stroke-linejoin="miter"
     stroke="rgb(75%, 75%, 75%)"
     stroke-opacity="1"
     stroke-miterlimit="10"
     d="M 113.387687 141.735531 L 141.735344 141.735531 L 141.735344 170.079281 L 113.387687 170.079281 Z M 113.387687 141.735531 "
     transform="matrix(1, 0, 0, -1, 20.042, 218.466)"
     id="path68" />
  <path
     fill="none"
     stroke-width="7.97021"
     stroke-linecap="butt"
     stroke-linejoin="miter"
     stroke="rgb(75%, 75%, 75%)"
     stroke-opacity="1"
     stroke-miterlimit="10"
     d="M 113.387687 170.079281 L 141.735344 170.079281 L 141.735344 198.426938 L 113.387687 198.426938 Z M 113.387687 170.079281 "
     transform="matrix(1, 0, 0, -1, 20.042, 218.466)"
     id="path70" />
  <path
     fill="none"
     stroke-width="7.97021"
     stroke-linecap="butt"
     stroke-linejoin="miter"
     stroke="rgb(75%, 75%, 75%)"
     stroke-opacity="1"
     stroke-miterlimit="10"
     d="M 141.735344 0.00115625 L 170.079094 0.00115625 L 170.079094 28.344906 L 141.735344 28.344906 Z M 141.735344 0.00115625 "
     transform="matrix(1, 0, 0, -1, 20.042, 218.466)"
     id="path72" />
  <path
     fill="none"
     stroke-width="7.97021"
     stroke-linecap="butt"
     stroke-linejoin="miter"
     stroke="rgb(75%, 75%, 75%)"
     stroke-opacity="1"
     stroke-miterlimit="10"
     d="M 141.735344 28.344906 L 170.079094 28.344906 L 170.079094 56.692563 L 141.735344 56.692563 Z M 141.735344 28.344906 "
     transform="matrix(1, 0, 0, -1, 20.042, 218.466)"
     id="path74" />
  <path
     fill="none"
     stroke-width="7.97021"
     stroke-linecap="butt"
     stroke-linejoin="miter"
     stroke="rgb(75%, 75%, 75%)"
     stroke-opacity="1"
     stroke-miterlimit="10"
     d="M 141.735344 56.692563 L 170.079094 56.692563 L 170.079094 85.040219 L 141.735344 85.040219 Z M 141.735344 56.692563 "
     transform="matrix(1, 0, 0, -1, 20.042, 218.466)"
     id="path76" />
  <path
     fill="none"
     stroke-width="7.97021"
     stroke-linecap="butt"
     stroke-linejoin="miter"
     stroke="rgb(75%, 75%, 75%)"
     stroke-opacity="1"
     stroke-miterlimit="10"
     d="M 141.735344 85.040219 L 170.079094 85.040219 L 170.079094 113.387875 L 141.735344 113.387875 Z M 141.735344 85.040219 "
     transform="matrix(1, 0, 0, -1, 20.042, 218.466)"
     id="path78" />
  <path
     fill="none"
     stroke-width="7.97021"
     stroke-linecap="butt"
     stroke-linejoin="miter"
     stroke="rgb(75%, 75%, 75%)"
     stroke-opacity="1"
     stroke-miterlimit="10"
     d="M 141.735344 113.387875 L 170.079094 113.387875 L 170.079094 141.735531 L 141.735344 141.735531 Z M 141.735344 113.387875 "
     transform="matrix(1, 0, 0, -1, 20.042, 218.466)"
     id="path80" />
  <path
     fill="none"
     stroke-width="7.97021"
     stroke-linecap="butt"
     stroke-linejoin="miter"
     stroke="rgb(75%, 75%, 75%)"
     stroke-opacity="1"
     stroke-miterlimit="10"
     d="M 141.735344 141.735531 L 170.079094 141.735531 L 170.079094 170.079281 L 141.735344 170.079281 Z M 141.735344 141.735531 "
     transform="matrix(1, 0, 0, -1, 20.042, 218.466)"
     id="path82" />
  <path
     fill="none"
     stroke-width="7.97021"
     stroke-linecap="butt"
     stroke-linejoin="miter"
     stroke="rgb(75%, 75%, 75%)"
     stroke-opacity="1"
     stroke-miterlimit="10"
     d="M 141.735344 170.079281 L 170.079094 170.079281 L 170.079094 198.426938 L 141.735344 198.426938 Z M 141.735344 170.079281 "
     transform="matrix(1, 0, 0, -1, 20.042, 218.466)"
     id="path84" />
  <path
     fill="none"
     stroke-width="7.97021"
     stroke-linecap="butt"
     stroke-linejoin="miter"
     stroke="rgb(75%, 75%, 75%)"
     stroke-opacity="1"
     stroke-miterlimit="10"
     d="M 170.079094 0.00115625 L 198.42675 0.00115625 L 198.42675 28.344906 L 170.079094 28.344906 Z M 170.079094 0.00115625 "
     transform="matrix(1, 0, 0, -1, 20.042, 218.466)"
     id="path86" />
  <path
     fill="none"
     stroke-width="7.97021"
     stroke-linecap="butt"
     stroke-linejoin="miter"
     stroke="rgb(75%, 75%, 75%)"
     stroke-opacity="1"
     stroke-miterlimit="10"
     d="M 170.079094 28.344906 L 198.42675 28.344906 L 198.42675 56.692563 L 170.079094 56.692563 Z M 170.079094 28.344906 "
     transform="matrix(1, 0, 0, -1, 20.042, 218.466)"
     id="path88" />
  <path
     fill="none"
     stroke-width="7.97021"
     stroke-linecap="butt"
     stroke-linejoin="miter"
     stroke="rgb(75%, 75%, 75%)"
     stroke-opacity="1"
     stroke-miterlimit="10"
     d="M 170.079094 56.692563 L 198.42675 56.692563 L 198.42675 85.040219 L 170.079094 85.040219 Z M 170.079094 56.692563 "
     transform="matrix(1, 0, 0, -1, 20.042, 218.466)"
     id="path90" />
  <path
     fill="none"
     stroke-width="7.97021"
     stroke-linecap="butt"
     stroke-linejoin="miter"
     stroke="rgb(75%, 75%, 75%)"
     stroke-opacity="1"
     stroke-miterlimit="10"
     d="M 170.079094 85.040219 L 198.42675 85.040219 L 198.42675 113.387875 L 170.079094 113.387875 Z M 170.079094 85.040219 "
     transform="matrix(1, 0, 0, -1, 20.042, 218.466)"
     id="path92" />
  <path
     fill="none"
     stroke-width="7.97021"
     stroke-linecap="butt"
     stroke-linejoin="miter"
     stroke="rgb(75%, 75%, 75%)"
     stroke-opacity="1"
     stroke-miterlimit="10"
     d="M 170.079094 113.387875 L 198.42675 113.387875 L 198.42675 141.735531 L 170.079094 141.735531 Z M 170.079094 113.387875 "
     transform="matrix(1, 0, 0, -1, 20.042, 218.466)"
     id="path94" />
  <path
     fill="none"
     stroke-width="7.97021"
     stroke-linecap="butt"
     stroke-linejoin="miter"
     stroke="rgb(75%, 75%, 75%)"
     stroke-opacity="1"
     stroke-miterlimit="10"
     d="M 170.079094 141.735531 L 198.42675 141.735531 L 198.42675 170.079281 L 170.079094 170.079281 Z M 170.079094 141.735531 "
     transform="matrix(1, 0, 0, -1, 20.042, 218.466)"
     id="path96" />
  <path
     fill="none"
     stroke-width="7.97021"
     stroke-linecap="butt"
     stroke-linejoin="miter"
     stroke="rgb(75%, 75%, 75%)"
     stroke-opacity="1"
     stroke-miterlimit="10"
     d="M 170.079094 170.079281 L 198.42675 170.079281 L 198.42675 198.426938 L 170.079094 198.426938 Z M 170.079094 170.079281 "
     transform="matrix(1, 0, 0, -1, 20.042, 218.466)"
     id="path98" />
  <path
     fill="none"
     stroke-width="0.79701"
     stroke-linecap="butt"
     stroke-linejoin="miter"
     stroke="rgb(100%, 0%, 0%)"
     stroke-opacity="1"
     stroke-miterlimit="10"
     d="M 0.00096875 0.00115625 L 198.42675 0.00115625 L 198.42675 198.426938 "
     transform="matrix(1, 0, 0, -1, 20.042, 218.466)"
     id="path100" />
  <path
     fill="none"
     stroke-width="0.79701"
     stroke-linecap="butt"
     stroke-linejoin="miter"
     stroke="rgb(0%, 100%, 0%)"
     stroke-opacity="1"
     stroke-miterlimit="10"
     d="M 0.00096875 0.00115625 L 198.42675 198.426938 "
     transform="matrix(1, 0, 0, -1, 20.042, 218.466)"
     id="path102" />
  <path
     fill="none"
     stroke-width="0.79701"
     stroke-linecap="butt"
     stroke-linejoin="miter"
     stroke="rgb(0%, 0%, 100%)"
     stroke-opacity="1"
     stroke-miterlimit="10"
     d="M 0.00096875 0.00115625 L 28.348625 0.00115625 L 28.348625 28.344906 L 56.692375 28.344906 L 56.692375 56.692563 L 85.040031 56.692563 L 85.040031 85.040219 L 113.387687 85.040219 L 113.387687 113.387875 L 141.735344 113.387875 L 141.735344 141.735531 L 170.079094 141.735531 L 170.079094 170.079281 L 198.42675 170.079281 L 198.42675 198.426938 "
     transform="matrix(1, 0, 0, -1, 20.042, 218.466)"
     id="path104" />
  <path
     fill="none"
     stroke-width="0.79701"
     stroke-linecap="butt"
     stroke-linejoin="miter"
     stroke="rgb(100%, 94.898987%, 0%)"
     stroke-opacity="1"
     stroke-miterlimit="10"
     d="M 0.00096875 0.00115625 L 0.00096875 113.387875 L 85.040031 113.387875 L 85.040031 198.426938 L 198.42675 198.426938 "
     transform="matrix(1, 0, 0, -1, 20.042, 218.466)"
     id="path106" />
  <path
     fill-rule="nonzero"
     fill="rgb(0%, 0%, 0%)"
     fill-opacity="1"
     stroke-width="0.3985"
     stroke-linecap="butt"
     stroke-linejoin="miter"
     stroke="rgb(0%, 0%, 0%)"
     stroke-opacity="1"
     stroke-miterlimit="10"
     d="M 5.668938 0.00115625 C 5.668938 3.130063 3.129875 5.669125 0.00096875 5.669125 C -3.131844 5.669125 -5.670906 3.130063 -5.670906 0.00115625 C -5.670906 -3.131656 -3.131844 -5.670719 0.00096875 -5.670719 C 3.129875 -5.670719 5.668938 -3.131656 5.668938 0.00115625 Z M 5.668938 0.00115625 "
     transform="matrix(1, 0, 0, -1, 20.042, 218.466)"
     id="path108" />
  <path
     fill-rule="nonzero"
     fill="rgb(0%, 0%, 0%)"
     fill-opacity="1"
     stroke-width="0.3985"
     stroke-linecap="butt"
     stroke-linejoin="miter"
     stroke="rgb(0%, 0%, 0%)"
     stroke-opacity="1"
     stroke-miterlimit="10"
     d="M 204.098625 198.426938 C 204.098625 201.55975 201.559562 204.098813 198.42675 204.098813 C 195.297844 204.098813 192.758781 201.55975 192.758781 198.426938 C 192.758781 195.298031 195.297844 192.758969 198.42675 192.758969 C 201.559562 192.758969 204.098625 195.298031 204.098625 198.426938 Z M 204.098625 198.426938 "
     transform="matrix(1, 0, 0, -1, 20.042, 218.466)"
     id="path110" />
</svg>
