<?xml version="1.0" encoding="UTF-8"?>
<svg xmlns="http://www.w3.org/2000/svg" xmlns:xlink="http://www.w3.org/1999/xlink" width="240.266" height="153.228" viewBox="0 0 240.266 153.228">
<path fill="none" stroke-width="0.3985" stroke-linecap="butt" stroke-linejoin="miter" stroke="rgb(0%, 44.706726%, 74.116516%)" stroke-opacity="1" stroke-miterlimit="10" d="M -49.098281 28.348375 C -68.668594 -5.550062 -62.551406 -45.718031 -35.434219 -61.374281 C -8.317031 -77.026625 29.526719 -62.241469 49.097031 -28.346937 C 68.667344 5.547594 62.550156 45.715563 35.432969 61.371813 C 8.315781 77.028063 -29.527969 62.242906 -49.098281 28.348375 Z M -49.098281 28.348375 " transform="matrix(1, 0, 0, -1, 86.36, 76.614)"/>
<path fill="none" stroke-width="0.3985" stroke-linecap="butt" stroke-linejoin="miter" stroke="rgb(0%, 44.706726%, 74.116516%)" stroke-opacity="1" stroke-miterlimit="10" d="M -34.926406 28.348375 C -54.492812 -5.550062 -48.375625 -45.718031 -21.258437 -61.374281 C 5.854844 -77.026625 43.7025 -62.241469 63.272813 -28.346937 C 82.843125 5.547594 76.722031 45.715563 49.60875 61.371813 C 22.491563 77.028063 -15.356094 62.242906 -34.926406 28.348375 Z M -34.926406 28.348375 " transform="matrix(1, 0, 0, -1, 86.36, 76.614)"/>
<path fill="none" stroke-width="0.3985" stroke-linecap="butt" stroke-linejoin="miter" stroke="rgb(0%, 44.706726%, 74.116516%)" stroke-opacity="1" stroke-miterlimit="10" d="M -20.750625 28.348375 C -40.320937 -5.550062 -34.20375 -45.718031 -7.086562 -61.374281 C 20.030625 -77.026625 57.874375 -62.241469 77.444688 -28.346937 C 97.015 5.547594 90.897813 45.715563 63.780625 61.371813 C 36.663438 77.028063 -1.180312 62.242906 -20.750625 28.348375 Z M -20.750625 28.348375 " transform="matrix(1, 0, 0, -1, 86.36, 76.614)"/>
<path fill="none" stroke-width="0.3985" stroke-linecap="butt" stroke-linejoin="miter" stroke="rgb(0%, 44.706726%, 74.116516%)" stroke-opacity="1" stroke-miterlimit="10" d="M -6.57875 28.348375 C -26.149062 -5.550062 -20.027969 -45.718031 7.085313 -61.374281 C 34.2025 -77.026625 72.050156 -62.241469 91.616563 -28.346937 C 111.186875 5.547594 105.069688 45.715563 77.9525 61.371813 C 50.835313 77.028063 12.991563 62.242906 -6.57875 28.348375 Z M -6.57875 28.348375 " transform="matrix(1, 0, 0, -1, 86.36, 76.614)"/>
<path fill="none" stroke-width="0.3985" stroke-linecap="butt" stroke-linejoin="miter" stroke="rgb(0%, 44.706726%, 74.116516%)" stroke-opacity="1" stroke-miterlimit="10" d="M 7.597031 28.348375 C -11.973281 -5.550062 -5.856094 -45.718031 21.261094 -61.374281 C 48.378281 -77.026625 86.222031 -62.241469 105.792344 -28.346937 C 125.362656 5.547594 119.245469 45.715563 92.128281 61.371813 C 65.011094 77.028063 27.163438 62.242906 7.597031 28.348375 Z M 7.597031 28.348375 " transform="matrix(1, 0, 0, -1, 86.36, 76.614)"/>
<path fill="none" stroke-width="0.3985" stroke-linecap="butt" stroke-linejoin="miter" stroke="rgb(0%, 44.706726%, 74.116516%)" stroke-opacity="1" stroke-miterlimit="10" d="M 21.768906 28.348375 C 2.198594 -5.550062 8.315781 -45.718031 35.432969 -61.374281 C 62.550156 -77.026625 100.393906 -62.241469 119.964219 -28.346937 C 139.534531 5.547594 133.417344 45.715563 106.300156 61.371813 C 79.182969 77.028063 41.339219 62.242906 21.768906 28.348375 Z M 21.768906 28.348375 " transform="matrix(1, 0, 0, -1, 86.36, 76.614)"/>
</svg>
